…
✔ tibble  2.1.3     ✔ dplyr   0.8.3
✔ tidyr   1.0.0     ✔ stringr 1.4.0
✔ readr   1.3.1     ✔ forcats 0.4.0
── Conflicts ────────────────────────────────────────── tidyverse_conflicts() ──
✖ dplyr::filter() masks stats::filter()
✖ dplyr::lag()    masks stats::lag()
> 
> ## read job number from system environment
> ## This only works if run on cluster!!
> #job_num = as.integer(Sys.getenv("SGE_TASK_ID"))
> #job_num
> 
> load(paste0("/ifs/scratch/msph/ehs/eag2186/Data/sim_noise.RDA"))
> sim_noise
# A tibble: 300 x 6
    seed true_patterns     true_scores      chem           sim            data  
   <int> <list>            <list>           <list>         <list>         <chr> 
 1     1 <dbl[,50] [4 × 5… <dbl[,4] [1,000… <dbl[,50] [1,… <dbl[,50] [1,… Disti…
 2     2 <dbl[,50] [4 × 5… <dbl[,4] [1,000… <dbl[,50] [1,… <dbl[,50] [1,… Disti…
 3     3 <dbl[,50] [4 × 5… <dbl[,4] [1,000… <dbl[,50] [1,… <dbl[,50] [1,… Disti…
 4     4 <dbl[,50] [4 × 5… <dbl[,4] [1,000… <dbl[,50] [1,… <dbl[,50] [1,… Disti…
 5     5 <dbl[,50] [4 × 5… <dbl[,4] [1,000… <dbl[,50] [1,… <dbl[,50] [1,… Disti…
 6     6 <dbl[,50] [4 × 5… <dbl[,4] [1,000… <dbl[,50] [1,… <dbl[,50] [1,… Disti…
 7     7 <dbl[,50] [4 × 5… <dbl[,4] [1,000… <dbl[,50] [1,… <dbl[,50] [1,… Disti…
 8     8 <dbl[,50] [4 × 5… <dbl[,4] [1,000… <dbl[,50] [1,… <dbl[,50] [1,… Disti…
 9     9 <dbl[,50] [4 × 5… <dbl[,4] [1,000… <dbl[,50] [1,… <dbl[,50] [1,… Disti…
10    10 <dbl[,50] [4 × 5… <dbl[,4] [1,000… <dbl[,50] [1,… <dbl[,50] [1,… Disti…
# … with 290 more rows
…
